<?xml version="1.0" encoding="UTF-8" standalone="no"?>
<svg
      xmlns:dc="http://purl.org/dc/elements/1.1/"
      xmlns:cc="http://creativecommons.org/ns#"
      xmlns:rdf="http://www.w3.org/1999/02/22-rdf-syntax-ns#"
      xmlns:svg="http://www.w3.org/2000/svg"
      xmlns="http://www.w3.org/2000/svg"
      xmlns:sodipodi="http://sodipodi.sourceforge.net/DTD/sodipodi-0.dtd"
      xmlns:inkscape="http://www.inkscape.org/namespaces/inkscape"
      version="1.1"
      width="16.014141"
      height="16.014141"
      id="svg42"
      inkscape:version="0.91 r13725"
      sodipodi:docname="etl.svg">
  <sodipodi:namedview
        pagecolor="#ffffff"
        bordercolor="#666666"
        borderopacity="1"
        objecttolerance="10"
        gridtolerance="10"
        guidetolerance="10"
        inkscape:pageopacity="0"
        inkscape:pageshadow="2"
        inkscape:window-width="835"
        inkscape:window-height="602"
        id="namedview28"
        showgrid="false"
        inkscape:zoom="5.0019054"
        inkscape:cx="2.4349675"
        inkscape:cy="8.1985906"
        inkscape:window-x="722"
        inkscape:window-y="271"
        inkscape:window-maximized="0"
        inkscape:current-layer="svg42"/>
  <metadata
        id="metadata48">
    <rdf:RDF>
      <cc:Work
            rdf:about="">
        <dc:format>image/svg+xml</dc:format>
        <dc:type
              rdf:resource="http://purl.org/dc/dcmitype/StillImage"/>
        <dc:title/>
      </cc:Work>
    </rdf:RDF>
  </metadata>
  <defs
        id="defs46">
    <clipPath
          id="clipPath872"
          clipPathUnits="userSpaceOnUse">
      <g
            id="use874"
            style="fill:#9aa7b0;fill-opacity:1">
        <path
              id="path884"
              d="m 2.5,1 0,9 c 0,0 7.4781604,0.01135 11,0 l 0,-6 -3,-3 z"
              style="opacity:0.7;fill:#9aa7b0;fill-opacity:1;stroke-width:1"/>
      </g>
    </clipPath>
  </defs>
  <g
        style="display:none"
        transform="translate(0.50207095,-0.48792904)"
        id="layer1">
    <rect
          y="3.5000005"
          x="0.51000011"
          height="9.9899998"
          width="13.99"
          id="rect4224"
          style="opacity:1;fill:none;fill-opacity:1;stroke:#7a8082;stroke-width:0.02;stroke-miterlimit:4;stroke-dasharray:none"/>
    <rect
          style="opacity:1;fill:none;fill-opacity:1;stroke:#7a8082;stroke-width:0.02;stroke-miterlimit:4;stroke-dasharray:none"
          id="rect4226"
          width="11.99"
          height="11.99"
          x="1.51"
          y="2.5000002"/>
    <rect
          transform="matrix(0,1,-1,0,0,0)"
          style="opacity:1;fill:none;fill-opacity:1;stroke:#7a8082;stroke-width:0.02;stroke-miterlimit:4;stroke-dasharray:none"
          id="rect4228"
          width="13.99"
          height="9.9899998"
          x="1.5000005"
          y="-12.5"/>
    <circle
          r="6.9949999"
          cy="8.499999"
          cx="7.5"
          id="path4230"
          style="opacity:1;fill:none;fill-opacity:1;stroke:#c5c3c3;stroke-width:0.02;stroke-miterlimit:4;stroke-dasharray:none"/>
    <path
          id="path4232"
          d="M -0.49499988,0.49500011 15.505,16.495"
          style="fill:none;fill-rule:evenodd;stroke:#c5c3c3;stroke-width:0.02;stroke-linecap:butt;stroke-linejoin:miter;stroke-miterlimit:4;stroke-dasharray:none;stroke-opacity:1"/>
    <path
          style="fill:none;fill-rule:evenodd;stroke:#c5c3c3;stroke-width:0.02;stroke-linecap:butt;stroke-linejoin:miter;stroke-miterlimit:4;stroke-dasharray:none;stroke-opacity:1"
          d="M -0.49499988,16.495 15.505,0.49500011"
          id="path4234"/>
    <circle
          style="opacity:1;fill:none;fill-opacity:1;stroke:#c5c3c3;stroke-width:0.02;stroke-miterlimit:4;stroke-dasharray:none"
          id="circle4236"
          cx="7.5"
          cy="8.499999"
          r="2.99"/>
  </g>
  <text
        xml:space="preserve"
        style="font-style:normal;font-variant:normal;font-weight:normal;font-stretch:normal;font-size:10.66666698px;font-family:'Linux Libertine O';-inkscape-font-specification:'Linux Libertine O';text-align:center;writing-mode:lr-tb;text-anchor:middle;opacity:1;fill:none;fill-opacity:1;fill-rule:nonzero;stroke:#f3d55b;stroke-width:1;stroke-miterlimit:4;stroke-dasharray:none"
        x="7.1963415"
        y="-1.438918"
        id="text840"><tspan
       id="tspan838"
       x="7.1963415"
       y="-1.438918"
       style="fill:#b99bf8;stroke:none" /></text>
  <text
        xml:space="preserve"
        style="font-style:normal;font-variant:normal;font-weight:normal;font-stretch:normal;font-size:16px;font-family:'Linux Libertine O';-inkscape-font-specification:'Linux Libertine O';text-align:center;writing-mode:lr-tb;text-anchor:middle;opacity:1;fill:#b99bf8;fill-opacity:1;fill-rule:nonzero;stroke:none"
        x="5.7870212"
        y="-5.2754002"
        id="text844"><tspan
       id="tspan842"
       x="5.7870212"
       y="-5.2754002"
       style="font-style:normal;font-variant:normal;font-weight:normal;font-stretch:normal;font-family:Wingdings;-inkscape-font-specification:Wingdings" /></text>
  <g
        style="font-style:normal;font-weight:normal;font-size:69.45635223px;line-height:125%;font-family:sans-serif;text-align:center;letter-spacing:0px;word-spacing:0px;text-anchor:middle;fill:#b99bf8;fill-opacity:1;stroke:none;stroke-width:1px;stroke-linecap:butt;stroke-linejoin:miter;stroke-opacity:1"
        id="text4303"
        transform="translate(0.50207095,-0.48792904)"/>
  <g
        transform="matrix(0.05251538,0,0,0.05251538,-17.998324,-33.452891)"
        id="layer1-4"
        style="display:inline;fill:#afb1b3">
    <g
          id="text5540"
          style="font-style:normal;font-weight:normal;line-height:0%;font-family:'Times New Roman';text-align:start;text-anchor:start;fill:#afb1b3;fill-opacity:1;stroke:none;stroke-width:1px;stroke-linecap:butt;stroke-linejoin:miter;stroke-opacity:1"
          aria-label="ε">
      <path
            inkscape:connector-curvature="0"
            id="path814"
            style="font-size:400px;line-height:1.25;text-align:center;text-anchor:middle;fill:#afb1b3"
            d="m 428.69989,745.64111 q -38.47656,-13.67187 -38.47656,-41.40625 0,-21.875 20.3125,-34.96093 20.50781,-13.08594 50.78125,-13.08594 27.53906,0 43.75,9.17969 16.21094,8.98437 16.21094,21.67968 0,6.64063 -5.07813,11.71875 -5.07812,4.88282 -11.71875,4.88282 -10.9375,0 -17.96875,-15.23438 -9.76562,-21.09375 -29.29687,-21.09375 -15.42969,0 -25.39063,10.15625 -9.96094,10.15625 -9.96094,28.32031 0,35.74219 36.91407,35.74219 3.90625,0 8.98437,-0.78125 8.78906,-1.17187 13.67188,-1.17187 11.91406,0 11.91406,6.83593 0,7.61719 -12.10938,7.61719 -4.29687,0 -12.89062,-1.36719 -6.44531,-1.17187 -9.96094,-1.17187 -39.0625,0 -39.0625,39.84375 0,19.33594 10.35156,31.25 10.35157,11.71875 28.90625,11.71875 23.24219,0 30.85938,-24.02344 3.90625,-12.69531 8.59375,-17.57812 4.88281,-4.88282 12.89062,-4.88282 6.64063,0 11.91407,4.88282 5.46875,4.6875 5.46875,12.10937 0,17.77344 -19.92188,29.49219 -19.92187,11.52344 -48.24219,11.52344 -31.05468,0 -55.27343,-14.84375 -24.02344,-14.84375 -24.02344,-39.64844 0,-31.05469 47.85156,-45.70313 z"/>
    </g>
  </g>
  <text
        sodipodi:linespacing="125%"
        id="text4187"
        y="15.012071"
        x="10.158478"
        style="font-style:normal;font-weight:normal;font-size:65.48319244px;line-height:125%;font-family:sans-serif;text-align:center;letter-spacing:0px;word-spacing:0px;text-anchor:middle;fill:#b99bf8;fill-opacity:1;stroke:none;stroke-width:1px;stroke-linecap:butt;stroke-linejoin:miter;stroke-opacity:1;"
        xml:space="preserve"><tspan
       style="font-style:normal;font-variant:normal;font-weight:900;font-stretch:normal;font-size:7.5px;font-family:'Gotham Black';-inkscape-font-specification:'Gotham Black, Heavy';letter-spacing:1px;word-spacing:0px;fill:#b99bf8;"
       y="15.012071"
       x="10.658477"
       id="tspan4189">TL</tspan></text>
  <g
        style="display:none"
        id="layer3"/>
</svg>
